SPI_DBQ/SPI_DBQ.sim/sim_1/behav/xsim/dump.vcd
$date
   Tue Jun  3 15:25:20 2025
$end
$version
  2023.1
$end
$timescale
  1ps
$end
$scope module SPI_Master_With_Multi_CS_TB $end
$var reg 1 ! r_Rst_L $end
$var reg 1 " r_Clk $end
$var wire 1 # w_SPI_Clk $end
$var wire 1 $ w_SPI_MOSI $end
$var wire 4 % w_SPI_CS [3:0] $end
$var wire 1 & w_SPI_MISO $end
$var reg 8 ' r_Master_TX_Byte [7:0] $end
$var reg 1 ( r_Master_TX_DV $end
$var reg 2 ) r_Master_TX_Count [1:0] $end
$var reg 2 * r_Slave_Select [1:0] $end
$var wire 1 + w_Master_TX_Ready $end
$var wire 1 , w_Master_RX_DV $end
$var wire 8 - w_Master_RX_Byte [7:0] $end
$var wire 2 . w_Master_RX_Count [1:0] $end
$var wire 1 / w_MISO_0 $end
$var wire 1 0 w_MISO_1 $end
$var wire 1 1 w_MISO_2 $end
$var wire 1 2 w_MISO_3 $end
$var integer 32 3 i [31:0] $end
$var integer 32 4 pass_count [31:0] $end
$var integer 32 5 fail_count [31:0] $end
$var integer 32 6 num_vectors [31:0] $end
$scope module UUT $end
$var wire 1 7 i_Rst_L $end
$var wire 1 8 i_Clk $end
$var wire 2 9 i_TX_Count [1:0] $end
$var wire 8 : i_TX_Byte [7:0] $end
$var wire 1 ; i_TX_DV $end
$var wire 2 < i_Slave_Select [1:0] $end
$var wire 1 + o_TX_Ready $end
$var reg 2 = o_RX_Count [1:0] $end
$var wire 1 , o_RX_DV $end
$var wire 8 - o_RX_Byte [7:0] $end
$var wire 1 # o_SPI_Clk $end
$var wire 1 & i_SPI_MISO $end
$var wire 1 $ o_SPI_MOSI $end
$var reg 4 > o_SPI_CS [3:0] $end
$var reg 2 ? r_SM_CS [1:0] $end
$var reg 4 @ r_CS_Inactive_Count [3:0] $end
$var reg 2 A r_TX_Count [1:0] $end
$var wire 1 B w_Master_Ready $end
$scope module SPI_Master_Inst $end
$var wire 1 7 i_Rst_L $end
$var wire 1 8 i_Clk $end
$var wire 8 : i_TX_Byte [7:0] $end
$var wire 1 ; i_TX_DV $end
$var wire 2 < i_Slave_Select [1:0] $end
$var reg 1 C o_TX_Ready $end
$var reg 1 D o_RX_DV $end
$var reg 8 E o_RX_Byte [7:0] $end
$var reg 1 F o_SPI_Clk $end
$var reg 1 G o_SPI_MOSI $end
$var wire 1 & i_SPI_MISO $end
$var reg 1 H o_SPI_CS [0:0] $end
$var wire 1 I w_CPOL $end
$var wire 1 J w_CPHA $end
$var reg 3 K r_SPI_Clk_Count [2:0] $end
$var reg 1 L r_SPI_Clk $end
$var reg 5 M r_SPI_Clk_Edges [4:0] $end
$var reg 1 N r_Leading_Edge $end
$var reg 1 O r_Trailing_Edge $end
$var reg 1 P r_TX_DV $end
$var reg 8 Q r_TX_Byte [7:0] $end
$var reg 3 R r_TX_Bit_Count [2:0] $end
$var reg 3 S r_RX_Bit_Count [2:0] $end
$upscope $end
$upscope $end
$scope task SendAndCheck $end
$var reg 8 T data [7:0] $end
$var integer 32 U slave_id [31:0] $end
$var reg 8 V expected [7:0] $end
$upscope $end
$upscope $end
$enddefinitions $end
#0
$dumpvars
0!
0"
1#
0$
b1111 %
z&
b0 '
0(
b10 )
b0 *
1+
0,
b0 -
bx .
0/
10
01
12
b100001 3
b0 4
b0 5
b1111 6
07
08
b10 9
b0 :
0;
b0 <
bx =
b1111 >
b0 ?
b1010 @
b0 A
0B
0C
0D
b0 E
1F
0G
1H
1I
1J
b0 K
1L
b0 M
0N
0O
0P
b0 Q
b111 R
b111 S
bx T
bx U
bx V
$end
#2000
1"
b0 .
18
b0 =
#4000
0"
08
#6000
1"
18
#8000
0"
08
#10000
1"
18
#12000
0"
08
#14000
1"
18
#16000
0"
08
#18000
1"
18
#20000
0"
08
#22000
1"
18
#24000
0"
08
#26000
1"
18
#28000
0"
08
#30000
1"
18
#32000
0"
08
#34000
1"
18
#36000
0"
08
#38000
1!
1"
17
18
1B
1C
#40000
0"
08
#42000
1"
b0 3
18
b11000001 T
b0 U
#44000
0"
08
#46000
1"
b11000001 '
1(
0+
18
b11000001 :
1;
#48000
0"
08
#50000
1"
b1110 %
0&
0(
0+
18
0;
b1110 >
b1 ?
b1 A
0B
0C
0H
b10000 M
1P
b11000001 Q
#52000
0"
08
#54000
1"
18
b1 K
0P
#56000
0"
08
#58000
1"
18
b10 K
#60000
0"
08
#62000
1"
18
b11 K
#64000
0"
08
#66000
1"
18
b100 K
0L
b1111 M
1N
#68000
0"
08
#70000
1"
0#
1$
1&
1/
00
11
02
18
0F
1G
b101 K
0N
b110 R
#72000
0"
08
#74000
1"
18
b110 K
#76000
0"
08
#78000
1"
18
b111 K
#80000
0"
08
#82000
1"
18
b0 K
1L
b1110 M
1O
#84000
0"
08
#86000
1"
1#
b10000000 -
18
b10000000 E
1F
b1 K
0O
b110 S
#88000
0"
08
#90000
1"
18
b10 K
#92000
0"
08
#94000
1"
18
b11 K
#96000
0"
08
#98000
1"
18
b100 K
0L
b1101 M
1N
#100000
0"
08
#102000
1"
0#
18
0F
b101 K
0N
b101 R
#104000
0"
08
#106000
1"
18
b110 K
#108000
0"
08
#110000
1"
18
b111 K
#112000
0"
08
#114000
1"
18
b0 K
1L
b1100 M
1O
#116000
0"
08
#118000
1"
1#
b11000000 -
18
b11000000 E
1F
b1 K
0O
b101 S
#120000
0"
08
#122000
1"
18
b10 K
#124000
0"
08
#126000
1"
18
b11 K
#128000
0"
08
#130000
1"
18
b100 K
0L
b1011 M
1N
#132000
0"
08
#134000
1"
0#
0$
0&
0/
10
01
12
18
0F
0G
b101 K
0N
b100 R
#136000
0"
08
#138000
1"
18
b110 K
#140000
0"
08
#142000
1"
18
b111 K
#144000
0"
08
#146000
1"
18
b0 K
1L
b1010 M
1O
#148000
0"
08
#150000
1"
1#
18
1F
b1 K
0O
b100 S
#152000
0"
08
#154000
1"
18
b10 K
#156000
0"
08
#158000
1"
18
b11 K
#160000
0"
08
#162000
1"
18
b100 K
0L
b1001 M
1N
#164000
0"
08
#166000
1"
0#
18
0F
b101 K
0N
b11 R
#168000
0"
08
#170000
1"
18
b110 K
#172000
0"
08
#174000
1"
18
b111 K
#176000
0"
08
#178000
1"
18
b0 K
1L
b1000 M
1O
#180000
0"
08
#182000
1"
1#
18
1F
b1 K
0O
b11 S
#184000
0"
08
#186000
1"
18
b10 K
#188000
0"
08
#190000
1"
18
b11 K
#192000
0"
08
#194000
1"
18
b100 K
0L
b111 M
1N
#196000
0"
08
#198000
1"
0#
18
0F
b101 K
0N
b10 R
#200000
0"
08
#202000
1"
18
b110 K
#204000
0"
08
#206000
1"
18
b111 K
#208000
0"
08
#210000
1"
18
b0 K
1L
b110 M
1O
#212000
0"
08
#214000
1"
1#
18
1F
b1 K
0O
b10 S
#216000
0"
08
#218000
1"
18
b10 K
#220000
0"
08
#222000
1"
18
b11 K
#224000
0"
08
#226000
1"
18
b100 K
0L
b101 M
1N
#228000
0"
08
#230000
1"
0#
18
0F
b101 K
0N
b1 R
#232000
0"
08
#234000
1"
18
b110 K
#236000
0"
08
#238000
1"
18
b111 K
#240000
0"
08
#242000
1"
18
b0 K
1L
b100 M
1O
#244000
0"
08
#246000
1"
1#
18
1F
b1 K
0O
b1 S
#248000
0"
08
#250000
1"
18
b10 K
#252000
0"
08
#254000
1"
18
b11 K
#256000
0"
08
#258000
1"
18
b100 K
0L
b11 M
1N
#260000
0"
08
#262000
1"
0#
18
0F
b101 K
0N
b0 R
#264000
0"
08
#266000
1"
18
b110 K
#268000
0"
08
#270000
1"
18
b111 K
#272000
0"
08
#274000
1"
18
b0 K
1L
b10 M
1O
#276000
0"
08
#278000
1"
1#
18
1F
b1 K
0O
b0 S
#280000
0"
08
#282000
1"
18
b10 K
#284000
0"
08
#286000
1"
18
b11 K
#288000
0"
08
#290000
1"
18
b100 K
0L
b1 M
1N
#292000
0"
08
#294000
1"
0#
1$
1&
1/
00
11
02
18
0F
1G
b101 K
0N
b111 R
#296000
0"
08
#298000
1"
18
b110 K
#300000
0"
08
#302000
1"
18
b111 K
#304000
0"
08
#306000
1"
18
b0 K
1L
b0 M
1O
#308000
0"
08
#310000
1"
1#
1+
1,
b11000001 -
18
1B
1C
1D
b11000001 E
1F
0O
b111 S
#312000
0"
08
#314000
1"
b1 *
0,
b1 .
b1 3
b1 4
18
b1 <
b1 =
0D
1H
b10111110 T
b1 U
b11000001 V
#316000
0"
08
#318000
1"
b10111110 '
1(
0+
18
b10111110 :
1;
#320000
0"
08
#322000
1"
0(
18
0;
b0 A
0B
0C
b10000 M
1P
b10111110 Q
#324000
0"
08
#326000
1"
18
b1 K
0P
#328000
0"
08
#330000
1"
18
b10 K
#332000
0"
08
#334000
1"
18
b11 K
#336000
0"
08
#338000
1"
18
b100 K
0L
b1111 M
1N
#340000
0"
08
#342000
1"
0#
18
0F
b101 K
0N
b110 R
#344000
0"
08
#346000
1"
18
b110 K
#348000
0"
08
#350000
1"
18
b111 K
#352000
0"
08
#354000
1"
18
b0 K
1L
b1110 M
1O
#356000
0"
08
#358000
1"
1#
18
1F
b1 K
0O
b110 S
#360000
0"
08
#362000
1"
18
b10 K
#364000
0"
08
#366000
1"
18
b11 K
#368000
0"
08
#370000
1"
18
b100 K
0L
b1101 M
1N
#372000
0"
08
#374000
1"
0#
0$
0&
0/
10
01
12
18
0F
0G
b101 K
0N
b101 R
#376000
0"
08
#378000
1"
18
b110 K
#380000
0"
08
#382000
1"
18
b111 K
#384000
0"
08
#386000
1"
18
b0 K
1L
b1100 M
1O
#388000
0"
08
#390000
1"
1#
b10000001 -
18
b10000001 E
1F
b1 K
0O
b101 S
#392000
0"
08
#394000
1"
18
b10 K
#396000
0"
08
#398000
1"
18
b11 K
#400000
0"
08
#402000
1"
18
b100 K
0L
b1011 M
1N
#404000
0"
08
#406000
1"
0#
1$
1&
1/
00
11
02
18
0F
1G
b101 K
0N
b100 R
#408000
0"
08
#410000
1"
18
b110 K
#412000
0"
08
#414000
1"
18
b111 K
#416000
0"
08
#418000
1"
18
b0 K
1L
b1010 M
1O
#420000
0"
08
#422000
1"
1#
b10100001 -
18
b10100001 E
1F
b1 K
0O
b100 S
#424000
0"
08
#426000
1"
18
b10 K
#428000
0"
08
#430000
1"
18
b11 K
#432000
0"
08
#434000
1"
18
b100 K
0L
b1001 M
1N
#436000
0"
08
#438000
1"
0#
18
0F
b101 K
0N
b11 R
#440000
0"
08
#442000
1"
18
b110 K
#444000
0"
08
#446000
1"
18
b111 K
#448000
0"
08
#450000
1"
18
b0 K
1L
b1000 M
1O
#452000
0"
08
#454000
1"
1#
b10110001 -
18
b10110001 E
1F
b1 K
0O
b11 S
#456000
0"
08
#458000
1"
18
b10 K
#460000
0"
08
#462000
1"
18
b11 K
#464000
0"
08
#466000
1"
18
b100 K
0L
b111 M
1N
#468000
0"
08
#470000
1"
0#
18
0F
b101 K
0N
b10 R
#472000
0"
08
#474000
1"
18
b110 K
#476000
0"
08
#478000
1"
18
b111 K
#480000
0"
08
#482000
1"
18
b0 K
1L
b110 M
1O
#484000
0"
08
#486000
1"
1#
b10111001 -
18
b10111001 E
1F
b1 K
0O
b10 S
#488000
0"
08
#490000
1"
18
b10 K
#492000
0"
08
#494000
1"
18
b11 K
#496000
0"
08
#498000
1"
18
b100 K
0L
b101 M
1N
#500000
0"
08
#502000
1"
0#
18
0F
b101 K
0N
b1 R
#504000
0"
08
#506000
1"
18
b110 K
#508000
0"
08
#510000
1"
18
b111 K
#512000
0"
08
#514000
1"
18
b0 K
1L
b100 M
1O
#516000
0"
08
#518000
1"
1#
b10111101 -
18
b10111101 E
1F
b1 K
0O
b1 S
#520000
0"
08
#522000
1"
18
b10 K
#524000
0"
08
#526000
1"
18
b11 K
#528000
0"
08
#530000
1"
18
b100 K
0L
b11 M
1N
#532000
0"
08
#534000
1"
0#
18
0F
b101 K
0N
b0 R
#536000
0"
08
#538000
1"
18
b110 K
#540000
0"
08
#542000
1"
18
b111 K
#544000
0"
08
#546000
1"
18
b0 K
1L
b10 M
1O
#548000
0"
08
#550000
1"
1#
b10111111 -
18
b10111111 E
1F
b1 K
0O
b0 S
#552000
0"
08
#554000
1"
18
b10 K
#556000
0"
08
#558000
1"
18
b11 K
#560000
0"
08
#562000
1"
18
b100 K
0L
b1 M
1N
#564000
0"
08
#566000
1"
0#
0$
0&
0/
10
01
12
18
0F
0G
b101 K
0N
b111 R
#568000
0"
08
#570000
1"
18
b110 K
#572000
0"
08
#574000
1"
18
b111 K
#576000
0"
08
#578000
1"
18
b0 K
1L
b0 M
1O
#580000
0"
08
#582000
1"
1#
1,
b10111110 -
18
1B
1C
1D
b10111110 E
1F
0O
b111 S
#584000
0"
08
#586000
1"
b1111 %
z&
b10 *
0,
b10 .
b10 3
b10 4
18
b10 <
b10 =
b1111 >
b10 ?
0D
b11101111 T
b10 U
b10111110 V
#588000
0"
08
#590000
1"
b0 .
18
b0 =
b1001 @
#592000
0"
08
#594000
1"
18
b1000 @
#596000
0"
08
#598000
1"
18
b111 @
#600000
0"
08
#602000
1"
18
b110 @
#604000
0"
08
#606000
1"
18
b101 @
#608000
0"
08
#610000
1"
18
b100 @
#612000
0"
08
#614000
1"
18
b11 @
#616000
0"
08
#618000
1"
18
b10 @
#620000
0"
08
#622000
1"
18
b1 @
#624000
0"
08
#626000
1"
18
b0 @
#628000
0"
08
#630000
1"
b11101111 '
1(
0+
18
b11101111 :
1;
b0 ?
#632000
0"
08
#634000
1"
b1011 %
0&
0(
0+
18
0;
b1011 >
b1 ?
b1 A
0B
0C
b10000 M
1P
b11101111 Q
#636000
0"
08
#638000
1"
18
b1 K
0P
#640000
0"
08
#642000
1"
18
b10 K
#644000
0"
08
#646000
1"
18
b11 K
#648000
0"
08
#650000
1"
18
b100 K
0L
b1111 M
1N
#652000
0"
08
#654000
1"
0#
1$
1&
1/
00
11
02
18
0F
1G
b101 K
0N
b110 R
#656000
0"
08
#658000
1"
18
b110 K
#660000
0"
08
#662000
1"
18
b111 K
#664000
0"
08
#666000
1"
18
b0 K
1L
b1110 M
1O
#668000
0"
08
#670000
1"
1#
18
1F
b1 K
0O
b110 S
#672000
0"
08
#674000
1"
18
b10 K
#676000
0"
08
#678000
1"
18
b11 K
#680000
0"
08
#682000
1"
18
b100 K
0L
b1101 M
1N
#684000
0"
08
#686000
1"
0#
18
0F
b101 K
0N
b101 R
#688000
0"
08
#690000
1"
18
b110 K
#692000
0"
08
#694000
1"
18
b111 K
#696000
0"
08
#698000
1"
18
b0 K
1L
b1100 M
1O
#700000
0"
08
#702000
1"
1#
b11111110 -
18
b11111110 E
1F
b1 K
0O
b101 S
#704000
0"
08
#706000
1"
18
b10 K
#708000
0"
08
#710000
1"
18
b11 K
#712000
0"
08
#714000
1"
18
b100 K
0L
b1011 M
1N
#716000
0"
08
#718000
1"
0#
18
0F
b101 K
0N
b100 R
#720000
0"
08
#722000
1"
18
b110 K
#724000
0"
08
#726000
1"
18
b111 K
#728000
0"
08
#730000
1"
18
b0 K
1L
b1010 M
1O
#732000
0"
08
#734000
1"
1#
18
1F
b1 K
0O
b100 S
#736000
0"
08
#738000
1"
18
b10 K
#740000
0"
08
#742000
1"
18
b11 K
#744000
0"
08
#746000
1"
18
b100 K
0L
b1001 M
1N
#748000
0"
08
#750000
1"
0#
0$
0&
0/
10
01
12
18
0F
0G
b101 K
0N
b11 R
#752000
0"
08
#754000
1"
18
b110 K
#756000
0"
08
#758000
1"
18
b111 K
#760000
0"
08
#762000
1"
18
b0 K
1L
b1000 M
1O
#764000
0"
08
#766000
1"
1#
b11101110 -
18
b11101110 E
1F
b1 K
0O
b11 S
#768000
0"
08
#770000
1"
18
b10 K
#772000
0"
08
#774000
1"
18
b11 K
#776000
0"
08
#778000
1"
18
b100 K
0L
b111 M
1N
#780000
0"
08
#782000
1"
0#
1$
1&
1/
00
11
02
18
0F
1G
b101 K
0N
b10 R
#784000
0"
08
#786000
1"
18
b110 K
#788000
0"
08
#790000
1"
18
b111 K
#792000
0"
08
#794000
1"
18
b0 K
1L
b110 M
1O
#796000
0"
08
#798000
1"
1#
18
1F
b1 K
0O
b10 S
#800000
0"
08
#802000
1"
18
b10 K
#804000
0"
08
#806000
1"
18
b11 K
#808000
0"
08
#810000
1"
18
b100 K
0L
b101 M
1N
#812000
0"
08
#814000
1"
0#
18
0F
b101 K
0N
b1 R
#816000
0"
08
#818000
1"
18
b110 K
#820000
0"
08
#822000
1"
18
b111 K
#824000
0"
08
#826000
1"
18
b0 K
1L
b100 M
1O
#828000
0"
08
#830000
1"
1#
18
1F
b1 K
0O
b1 S
#832000
0"
08
#834000
1"
18
b10 K
#836000
0"
08
#838000
1"
18
b11 K
#840000
0"
08
#842000
1"
18
b100 K
0L
b11 M
1N
#844000
0"
08
#846000
1"
0#
18
0F
b101 K
0N
b0 R
#848000
0"
08
#850000
1"
18
b110 K
#852000
0"
08
#854000
1"
18
b111 K
#856000
0"
08
#858000
1"
18
b0 K
1L
b10 M
1O
#860000
0"
08
#862000
1"
1#
18
1F
b1 K
0O
b0 S
#864000
0"
08
#866000
1"
18
b10 K
#868000
0"
08
#870000
1"
18
b11 K
#872000
0"
08
#874000
1"
18
b100 K
0L
b1 M
1N
#876000
0"
08
#878000
1"
0#
18
0F
b101 K
0N
b111 R
#880000
0"
08
#882000
1"
18
b110 K
#884000
0"
08
#886000
1"
18
b111 K
#888000
0"
08
#890000
1"
18
b0 K
1L
b0 M
1O
#892000
0"
08
#894000
1"
1#
1+
1,
b11101111 -
18
1B
1C
1D
b11101111 E
1F
0O
b111 S
#896000
0"
08
#898000
1"
b11 *
0,
b1 .
b11 3
b11 4
18
b11 <
b1 =
0D
b1010101 T
b11 U
b11101111 V
#900000
0"
08
#902000
1"
b1010101 '
1(
0+
18
b1010101 :
1;
#904000
0"
08
#906000
1"
0(
18
0;
b0 A
0B
0C
b10000 M
1P
b1010101 Q
#908000
0"
08
#910000
1"
18
b1 K
0P
#912000
0"
08
#914000
1"
18
b10 K
#916000
0"
08
#918000
1"
18
b11 K
#920000
0"
08
#922000
1"
18
b100 K
0L
b1111 M
1N
#924000
0"
08
#926000
1"
0#
0$
0&
0/
10
01
12
18
0F
0G
b101 K
0N
b110 R
#928000
0"
08
#930000
1"
18
b110 K
#932000
0"
08
#934000
1"
18
b111 K
#936000
0"
08
#938000
1"
18
b0 K
1L
b1110 M
1O
#940000
0"
08
#942000
1"
1#
b1101111 -
18
b1101111 E
1F
b1 K
0O
b110 S
#944000
0"
08
#946000
1"
18
b10 K
#948000
0"
08
#950000
1"
18
b11 K
#952000
0"
08
#954000
1"
18
b100 K
0L
b1101 M
1N
#956000
0"
08
#958000
1"
0#
1$
1&
1/
00
11
02
18
0F
1G
b101 K
0N
b101 R
#960000
0"
08
#962000
1"
18
b110 K
#964000
0"
08
#966000
1"
18
b111 K
#968000
0"
08
#970000
1"
18
b0 K
1L
b1100 M
1O
#972000
0"
08
#974000
1"
1#
18
1F
b1 K
0O
b101 S
#976000
0"
08
#978000
1"
18
b10 K
#980000
0"
08
#982000
1"
18
b11 K
#984000
0"
08
#986000
1"
18
b100 K
0L
b1011 M
1N
#988000
0"
08
#990000
1"
0#
0$
0&
0/
10
01
12
18
0F
0G
b101 K
0N
b100 R
#992000
0"
08
#994000
1"
18
b110 K
#996000
0"
08
#998000
1"
18
b111 K
#1000000
0"
08
#1002000
1"
18
b0 K
1L
b1010 M
1O
#1004000
0"
08
#1006000
1"
1#
b1001111 -
18
b1001111 E
1F
b1 K
0O
b100 S
#1008000
0"
08
#1010000
1"
18
b10 K
#1012000
0"
08
#1014000
1"
18
b11 K
#1016000
0"
08
#1018000
1"
18
b100 K
0L
b1001 M
1N
#1020000
0"
08
#1022000
1"
0#
1$
1&
1/
00
11
02
18
0F
1G
b101 K
0N
b11 R
#1024000
0"
08
#1026000
1"
18
b110 K
#1028000
0"
08
#1030000
1"
18
b111 K
#1032000
0"
08
#1034000
1"
18
b0 K
1L
b1000 M
1O
#1036000
0"
08
#1038000
1"
1#
b1011111 -
18
b1011111 E
1F
b1 K
0O
b11 S
#1040000
0"
08
#1042000
1"
18
b10 K
#1044000
0"
08
#1046000
1"
18
b11 K
#1048000
0"
08
#1050000
1"
18
b100 K
0L
b111 M
1N
#1052000
0"
08
#1054000
1"
0#
0$
0&
0/
10
01
12
18
0F
0G
b101 K
0N
b10 R
#1056000
0"
08
#1058000
1"
18
b110 K
#1060000
0"
08
#1062000
1"
18
b111 K
#1064000
0"
08
#1066000
1"
18
b0 K
1L
b110 M
1O
#1068000
0"
08
#1070000
1"
1#
b1010111 -
18
b1010111 E
1F
b1 K
0O
b10 S
#1072000
0"
08
#1074000
1"
18
b10 K
#1076000
0"
08
#1078000
1"
18
b11 K
#1080000
0"
08
#1082000
1"
18
b100 K
0L
b101 M
1N
#1084000
0"
08
#1086000
1"
0#
1$
1&
1/
00
11
02
18
0F
1G
b101 K
0N
b1 R
#1088000
0"
08
#1090000
1"
18
b110 K
#1092000
0"
08
#1094000
1"
18
b111 K
#1096000
0"
08
#1098000
1"
18
b0 K
1L
b100 M
1O
#1100000
0"
08
#1102000
1"
1#
18
1F
b1 K
0O
b1 S
#1104000
0"
08
#1106000
1"
18
b10 K
#1108000
0"
08
#1110000
1"
18
b11 K
#1112000
0"
08
#1114000
1"
18
b100 K
0L
b11 M
1N
#1116000
0"
08
#1118000
1"
0#
0$
0&
0/
10
01
12
18
0F
0G
b101 K
0N
b0 R
#1120000
0"
08
#1122000
1"
18
b110 K
#1124000
0"
08
#1126000
1"
18
b111 K
#1128000
0"
08
#1130000
1"
18
b0 K
1L
b10 M
1O
#1132000
0"
08
#1134000
1"
1#
b1010101 -
18
b1010101 E
1F
b1 K
0O
b0 S
#1136000
0"
08
#1138000
1"
18
b10 K
#1140000
0"
08
#1142000
1"
18
b11 K
#1144000
0"
08
#1146000
1"
18
b100 K
0L
b1 M
1N
#1148000
0"
08
#1150000
1"
0#
1$
1&
1/
00
11
02
18
0F
1G
b101 K
0N
b111 R
#1152000
0"
08
#1154000
1"
18
b110 K
#1156000
0"
08
#1158000
1"
18
b111 K
#1160000
0"
08
#1162000
1"
18
b0 K
1L
b0 M
1O
#1164000
0"
08
#1166000
1"
1#
1,
18
1B
1C
1D
1F
0O
b111 S
#1168000
0"
08
#1170000
1"
b1111 %
z&
b0 *
0,
b10 .
b100 3
b100 4
18
b0 <
b10 =
b1111 >
b10 ?
b1010 @
0D
b10101010 T
b0 U
b1010101 V
#1172000
0"
08
#1174000
1"
b0 .
18
b0 =
b1001 @
#1176000
0"
08
#1178000
1"
18
b1000 @
#1180000
0"
08
#1182000
1"
18
b111 @
#1184000
0"
08
#1186000
1"
18
b110 @
#1188000
0"
08
#1190000
1"
18
b101 @
#1192000
0"
08
#1194000
1"
18
b100 @
#1196000
0"
08
#1198000
1"
18
b11 @
#1200000
0"
08
#1202000
1"
18
b10 @
#1204000
0"
08
#1206000
1"
18
b1 @
#1208000
0"
08
#1210000
1"
18
b0 @
#1212000
0"
08
#1214000
1"
b10101010 '
1(
0+
18
b10101010 :
1;
b0 ?
#1216000
0"
08
#1218000
1"
b1110 %
1&
0(
0+
18
0;
b1110 >
b1 ?
b1 A
0B
0C
0H
b10000 M
1P
b10101010 Q
#1220000
0"
08
#1222000
1"
18
b1 K
0P
#1224000
0"
08
#1226000
1"
18
b10 K
#1228000
0"
08
#1230000
1"
18
b11 K
#1232000
0"
08
#1234000
1"
18
b100 K
0L
b1111 M
1N
#1236000
0"
08
#1238000
1"
0#
18
0F
b101 K
0N
b110 R
#1240000
0"
08
#1242000
1"
18
b110 K
#1244000
0"
08
#1246000
1"
18
b111 K
#1248000
0"
08
#1250000
1"
18
b0 K
1L
b1110 M
1O
#1252000
0"
08
#1254000
1"
1#
b11010101 -
18
b11010101 E
1F
b1 K
0O
b110 S
#1256000
0"
08
#1258000
1"
18
b10 K
#1260000
0"
08
#1262000
1"
18
b11 K
#1264000
0"
08
#1266000
1"
18
b100 K
0L
b1101 M
1N
#1268000
0"
08
#1270000
1"
0#
0$
0&
0/
10
01
12
18
0F
0G
b101 K
0N
b101 R
#1272000
0"
08
#1274000
1"
18
b110 K
#1276000
0"
08
#1278000
1"
18
b111 K
#1280000
0"
08
#1282000
1"
18
b0 K
1L
b1100 M
1O
#1284000
0"
08
#1286000
1"
1#
b10010101 -
18
b10010101 E
1F
b1 K
0O
b101 S
#1288000
0"
08
#1290000
1"
18
b10 K
#1292000
0"
08
#1294000
1"
18
b11 K
#1296000
0"
08
#1298000
1"
18
b100 K
0L
b1011 M
1N
#1300000
0"
08
#1302000
1"
0#
1$
1&
1/
00
11
02
18
0F
1G
b101 K
0N
b100 R
#1304000
0"
08
#1306000
1"
18
b110 K
#1308000
0"
08
#1310000
1"
18
b111 K
#1312000
0"
08
#1314000
1"
18
b0 K
1L
b1010 M
1O
#1316000
0"
08
#1318000
1"
1#
b10110101 -
18
b10110101 E
1F
b1 K
0O
b100 S
#1320000
0"
08
#1322000
1"
18
b10 K
#1324000
0"
08
#1326000
1"
18
b11 K
#1328000
0"
08
#1330000
1"
18
b100 K
0L
b1001 M
1N
#1332000
0"
08
#1334000
1"
0#
0$
0&
0/
10
01
12
18
0F
0G
b101 K
0N
b11 R
#1336000
0"
08
#1338000
1"
18
b110 K
#1340000
0"
08
#1342000
1"
18
b111 K
#1344000
0"
08
#1346000
1"
18
b0 K
1L
b1000 M
1O
#1348000
0"
08
#1350000
1"
1#
b10100101 -
18
b10100101 E
1F
b1 K
0O
b11 S
#1352000
0"
08
#1354000
1"
18
b10 K
#1356000
0"
08
#1358000
1"
18
b11 K
#1360000
0"
08
#1362000
1"
18
b100 K
0L
b111 M
1N
#1364000
0"
08
#1366000
1"
0#
1$
1&
1/
00
11
02
18
0F
1G
b101 K
0N
b10 R
#1368000
0"
08
#1370000
1"
18
b110 K
#1372000
0"
08
#1374000
1"
18
b111 K
#1376000
0"
08
#1378000
1"
18
b0 K
1L
b110 M
1O
#1380000
0"
08
#1382000
1"
1#
b10101101 -
18
b10101101 E
1F
b1 K
0O
b10 S
#1384000
0"
08
#1386000
1"
18
b10 K
#1388000
0"
08
#1390000
1"
18
b11 K
#1392000
0"
08
#1394000
1"
18
b100 K
0L
b101 M
1N
#1396000
0"
08
#1398000
1"
0#
0$
0&
0/
10
01
12
18
0F
0G
b101 K
0N
b1 R
#1400000
0"
08
#1402000
1"
18
b110 K
#1404000
0"
08
#1406000
1"
18
b111 K
#1408000
0"
08
#1410000
1"
18
b0 K
1L
b100 M
1O
#1412000
0"
08
#1414000
1"
1#
b10101001 -
18
b10101001 E
1F
b1 K
0O
b1 S
#1416000
0"
08
#1418000
1"
18
b10 K
#1420000
0"
08
#1422000
1"
18
b11 K
#1424000
0"
08
#1426000
1"
18
b100 K
0L
b11 M
1N
#1428000
0"
08
#1430000
1"
0#
1$
1&
1/
00
11
02
18
0F
1G
b101 K
0N
b0 R
#1432000
0"
08
#1434000
1"
18
b110 K
#1436000
0"
08
#1438000
1"
18
b111 K
#1440000
0"
08
#1442000
1"
18
b0 K
1L
b10 M
1O
#1444000
0"
08
#1446000
1"
1#
b10101011 -
18
b10101011 E
1F
b1 K
0O
b0 S
#1448000
0"
08
#1450000
1"
18
b10 K
#1452000
0"
08
#1454000
1"
18
b11 K
#1456000
0"
08
#1458000
1"
18
b100 K
0L
b1 M
1N
#1460000
0"
08
#1462000
1"
0#
0$
0&
0/
10
01
12
18
0F
0G
b101 K
0N
b111 R
#1464000
0"
08
#1466000
1"
18
b110 K
#1468000
0"
08
#1470000
1"
18
b111 K
#1472000
0"
08
#1474000
1"
18
b0 K
1L
b0 M
1O
#1476000
0"
08
#1478000
1"
1#
1+
1,
b10101010 -
18
1B
1C
1D
b10101010 E
1F
0O
b111 S
#1480000
0"
08
#1482000
1"
b1 *
0,
b1 .
b101 3
b101 4
18
b1 <
b1 =
0D
1H
b0 T
b1 U
b10101010 V
#1484000
0"
08
#1486000
1"
b0 '
1(
0+
18
b0 :
1;
#1488000
0"
08
#1490000
1"
0(
18
0;
b0 A
0B
0C
b10000 M
1P
b0 Q
#1492000
0"
08
#1494000
1"
18
b1 K
0P
#1496000
0"
08
#1498000
1"
18
b10 K
#1500000
0"
08
#1502000
1"
18
b11 K
#1504000
0"
08
#1506000
1"
18
b100 K
0L
b1111 M
1N
#1508000
0"
08
#1510000
1"
0#
18
0F
b101 K
0N
b110 R
#1512000
0"
08
#1514000
1"
18
b110 K
#1516000
0"
08
#1518000
1"
18
b111 K
#1520000
0"
08
#1522000
1"
18
b0 K
1L
b1110 M
1O
#1524000
0"
08
#1526000
1"
1#
b101010 -
18
b101010 E
1F
b1 K
0O
b110 S
#1528000
0"
08
#1530000
1"
18
b10 K
#1532000
0"
08
#1534000
1"
18
b11 K
#1536000
0"
08
#1538000
1"
18
b100 K
0L
b1101 M
1N
#1540000
0"
08
#1542000
1"
0#
18
0F
b101 K
0N
b101 R
#1544000
0"
08
#1546000
1"
18
b110 K
#1548000
0"
08
#1550000
1"
18
b111 K
#1552000
0"
08
#1554000
1"
18
b0 K
1L
b1100 M
1O
#1556000
0"
08
#1558000
1"
1#
18
1F
b1 K
0O
b101 S
#1560000
0"
08
#1562000
1"
18
b10 K
#1564000
0"
08
#1566000
1"
18
b11 K
#1568000
0"
08
#1570000
1"
18
b100 K
0L
b1011 M
1N
#1572000
0"
08
#1574000
1"
0#
18
0F
b101 K
0N
b100 R
#1576000
0"
08
#1578000
1"
18
b110 K
#1580000
0"
08
#1582000
1"
18
b111 K
#1584000
0"
08
#1586000
1"
18
b0 K
1L
b1010 M
1O
#1588000
0"
08
