SPI_DBQ/SPI_DBQ.sim/sim_1/behav/xsim/spi_master_tb.vcd
$date
   Sun Jun  1 23:27:18 2025
$end
$version
  2023.1
$end
$timescale
  1ps
$end
$scope module SPI_Master_TB $end
$var reg 1 ! r_Rst_L $end
$var reg 1 " r_Clk $end
$var wire 1 # w_SPI_Clk $end
$var wire 1 $ w_SPI_MOSI $end
$var reg 1 % r_SPI_MISO $end
$var reg 8 & r_Master_TX_Byte [7:0] $end
$var reg 1 ' r_Master_TX_DV $end
$var wire 1 ( w_Master_TX_Ready $end
$var wire 1 ) r_Master_RX_DV $end
$var wire 8 * r_Master_RX_Byte [7:0] $end
$var reg 8 + slave_shift_reg [7:0] $end
$var reg 3 , slave_bit_count [2:0] $end
$scope module SPI_Master_UUT $end
$var wire 1 - i_Rst_L $end
$var wire 1 . i_Clk $end
$var wire 8 / i_TX_Byte [7:0] $end
$var wire 1 0 i_TX_DV $end
$var reg 1 1 o_TX_Ready $end
$var reg 1 2 o_RX_DV $end
$var reg 8 3 o_RX_Byte [7:0] $end
$var reg 1 4 o_SPI_Clk $end
$var wire 1 5 i_SPI_MISO $end
$var reg 1 6 o_SPI_MOSI $end
$var wire 1 7 w_CPOL $end
$var wire 1 8 w_CPHA $end
$var reg 3 9 r_SPI_Clk_Count [2:0] $end
$var reg 1 : r_SPI_Clk $end
$var reg 5 ; r_SPI_Clk_Edges [4:0] $end
$var reg 1 < r_Leading_Edge $end
$var reg 1 = r_Trailing_Edge $end
$var reg 1 > r_TX_DV $end
$var reg 8 ? r_TX_Byte [7:0] $end
$var reg 3 @ r_RX_Bit_Count [2:0] $end
$var reg 3 A r_TX_Bit_Count [2:0] $end
$upscope $end
$scope task SendSingleByte $end
$var reg 8 B data [7:0] $end
$upscope $end
$upscope $end
$enddefinitions $end
#0
$dumpvars
0!
0"
1#
0$
0%
b0 &
0'
0(
0)
b0 *
b0 +
b111 ,
0-
0.
b0 /
00
01
02
b0 3
14
05
06
17
18
b0 9
1:
b0 ;
0<
0=
0>
b0 ?
b111 @
b111 A
bx B
$end
#2000
1"
1.
#4000
0"
0.
#6000
1"
1.
#8000
0"
0.
#10000
1"
1.
#12000
0"
0.
#14000
1"
1.
#16000
0"
0.
#18000
1"
1.
#20000
0"
0.
#22000
1"
1.
#24000
0"
0.
#26000
1"
1.
#28000
0"
0.
#30000
1"
1.
#32000
0"
0.
#34000
1"
1.
#36000
0"
0.
#38000
1!
1"
1(
1-
1.
11
#40000
0"
0.
#42000
1"
1.
#44000
0"
0.
#46000
1"
1.
#48000
0"
0.
#50000
1"
1.
#52000
0"
0.
#54000
1"
1.
#56000
0"
0.
#58000
1"
1.
#60000
0"
0.
#62000
1"
1.
#64000
0"
0.
#66000
1"
1.
#68000
0"
0.
#70000
1"
1.
#72000
0"
0.
#74000
1"
1.
#76000
0"
0.
#78000
1"
1.
b11000001 B
#80000
0"
0.
#82000
1"
b11000001 &
1'
1.
b11000001 /
10
#84000
0"
0.
#86000
1"
0'
0(
1.
00
01
b10000 ;
1>
b11000001 ?
#88000
0"
0.
#90000
1"
1.
b1 9
0>
b10111110 B
#92000
0"
0.
#94000
1"
b10111110 &
1'
1.
b10111110 /
10
b10 9
#96000
0"
0.
#98000
1"
0'
1.
00
1>
b10111110 ?
#100000
0"
0.
#102000
1"
1.
b11 9
0>
#104000
0"
0.
#106000
1"
1.
b100 9
0:
b1111 ;
1<
#108000
0"
0.
#110000
1"
0#
1$
b1 +
b110 ,
1.
04
16
b101 9
0<
b110 A
#112000
0"
0.
#114000
1"
1.
b110 9
#116000
0"
0.
#118000
1"
1.
b111 9
#120000
0"
0.
#122000
1"
1.
b0 9
1:
b1110 ;
1=
#124000
0"
0.
#126000
1"
1#
b10 +
1.
14
b1 9
0=
b110 @
#128000
0"
0.
#130000
1"
1.
b10 9
#132000
0"
0.
#134000
1"
1.
b11 9
#136000
0"
0.
#138000
1"
1.
b100 9
0:
b1101 ;
1<
#140000
0"
0.
#142000
1"
0#
0$
b100 +
b101 ,
1.
04
06
b101 9
0<
b101 A
#144000
0"
0.
#146000
1"
1.
b110 9
#148000
0"
0.
#150000
1"
1.
b111 9
#152000
0"
0.
#154000
1"
1.
b0 9
1:
b1100 ;
1=
#156000
0"
0.
#158000
1"
1#
b1000 +
1.
14
b1 9
0=
b101 @
#160000
0"
0.
#162000
1"
1.
b10 9
#164000
0"
0.
#166000
1"
1.
b11 9
#168000
0"
0.
#170000
1"
1.
b100 9
0:
b1011 ;
1<
#172000
0"
0.
#174000
1"
0#
1$
b10001 +
b100 ,
1.
04
16
b101 9
0<
b100 A
#176000
0"
0.
#178000
1"
1.
b110 9
#180000
0"
0.
#182000
1"
1.
b111 9
#184000
0"
0.
#186000
1"
1.
b0 9
1:
b1010 ;
1=
#188000
0"
0.
#190000
1"
1#
b100010 +
1.
14
b1 9
0=
b100 @
#192000
0"
0.
#194000
1"
1.
b10 9
#196000
0"
0.
#198000
1"
1.
b11 9
#200000
0"
0.
#202000
1"
1.
b100 9
0:
b1001 ;
1<
#204000
0"
0.
#206000
1"
0#
b1000101 +
b11 ,
1.
04
b101 9
0<
b11 A
#208000
0"
0.
#210000
1"
1.
b110 9
#212000
0"
0.
#214000
1"
1.
b111 9
#216000
0"
0.
#218000
1"
1.
b0 9
1:
b1000 ;
1=
#220000
0"
0.
#222000
1"
1#
b10001010 +
1.
14
b1 9
0=
b11 @
#224000
0"
0.
#226000
1"
1.
b10 9
#228000
0"
0.
#230000
1"
1.
b11 9
#232000
0"
0.
#234000
1"
1.
b100 9
0:
b111 ;
1<
#236000
0"
0.
#238000
1"
0#
b10101 +
b10 ,
1.
04
b101 9
0<
b10 A
#240000
0"
0.
#242000
1"
1.
b110 9
#244000
0"
0.
#246000
1"
1.
b111 9
#248000
0"
0.
#250000
1"
1.
b0 9
1:
b110 ;
1=
#252000
0"
0.
#254000
1"
1#
b101010 +
1.
14
b1 9
0=
b10 @
#256000
0"
0.
#258000
1"
1.
b10 9
#260000
0"
0.
#262000
1"
1.
b11 9
#264000
0"
0.
#266000
1"
1.
b100 9
0:
b101 ;
1<
#268000
0"
0.
#270000
1"
0#
b1010101 +
b1 ,
1.
04
b101 9
0<
b1 A
#272000
0"
0.
#274000
1"
1.
b110 9
#276000
0"
0.
#278000
1"
1.
b111 9
#280000
0"
0.
#282000
1"
1.
b0 9
1:
b100 ;
1=
#284000
0"
0.
#286000
1"
1#
b10101010 +
1.
14
b1 9
0=
b1 @
#288000
0"
0.
#290000
1"
1.
b10 9
#292000
0"
0.
#294000
1"
1.
b11 9
#296000
0"
0.
#298000
1"
1.
b100 9
0:
b11 ;
1<
#300000
0"
0.
#302000
1"
0#
b1010101 +
b0 ,
1.
04
b101 9
0<
b0 A
#304000
0"
0.
#306000
1"
1.
b110 9
#308000
0"
0.
#310000
1"
1.
b111 9
#312000
0"
0.
#314000
1"
1.
b0 9
1:
b10 ;
1=
#316000
0"
0.
#318000
1"
1#
b10101010 +
1.
14
b1 9
0=
b0 @
#320000
0"
0.
#322000
1"
1.
b10 9
#324000
0"
0.
#326000
1"
1.
b11 9
#328000
0"
0.
#330000
1"
1.
b100 9
0:
b1 ;
1<
#332000
0"
0.
#334000
1"
0#
0$
b1010100 +
b111 ,
1.
04
06
b101 9
0<
b111 A
#336000
0"
0.
#338000
1"
1.
b110 9
#340000
0"
0.
#342000
1"
1.
b111 9
#344000
0"
0.
#346000
1"
1.
b0 9
1:
b0 ;
1=
#348000
0"
0.
#350000
1"
1#
1(
1)
b10101000 +
1.
11
12
14
0=
b111 @
#352000
0"
0.
#354000
1"
0)
1.
02
b11101111 B
#356000
0"
0.
#358000
1"
b11101111 &
1'
1.
b11101111 /
10
#360000
0"
0.
#362000
1"
0'
0(
1.
00
01
b10000 ;
1>
b11101111 ?
#364000
0"
0.
#366000
1"
1.
b1 9
0>
#368000
0"
0.
#370000
1"
1.
b10 9
#372000
0"
0.
#374000
1"
1.
b11 9
#376000
0"
0.
#378000
1"
1.
b100 9
0:
b1111 ;
1<
#380000
0"
0.
#382000
1"
0#
1$
b1010001 +
b110 ,
1.
04
16
b101 9
0<
b110 A
#384000
0"
0.
#386000
1"
1.
b110 9
#388000
0"
0.
#390000
1"
1.
b111 9
#392000
0"
0.
#394000
1"
1.
b0 9
1:
b1110 ;
1=
#396000
0"
0.
#398000
1"
1#
b10100010 +
1.
14
b1 9
0=
b110 @
#400000
0"
0.
#402000
1"
1.
b10 9
#404000
0"
0.
#406000
1"
1.
b11 9
#408000
0"
0.
#410000
1"
1.
b100 9
0:
b1101 ;
1<
#412000
0"
0.
#414000
1"
0#
b1000101 +
b101 ,
1.
04
b101 9
0<
b101 A
#416000
0"
0.
#418000
1"
1.
b110 9
#420000
0"
0.
#422000
1"
1.
b111 9
#424000
0"
0.
#426000
1"
1.
b0 9
1:
b1100 ;
1=
#428000
0"
0.
#430000
1"
1#
b10001010 +
1.
14
b1 9
0=
b101 @
#432000
0"
0.
#434000
1"
1.
b10 9
#436000
0"
0.
#438000
1"
1.
b11 9
#440000
0"
0.
#442000
1"
1.
b100 9
0:
b1011 ;
1<
